<?xml version="1.0" encoding="utf-8"?>
<!-- Generator: Adobe Illustrator 16.0.4, SVG Export Plug-In . SVG Version: 6.00 Build 0)  -->
<!DOCTYPE svg PUBLIC "-//W3C//DTD SVG 1.1//EN" "http://www.w3.org/Graphics/SVG/1.1/DTD/svg11.dtd">
<svg version="1.1" id="Layer_1" xmlns="http://www.w3.org/2000/svg" xmlns:xlink="http://www.w3.org/1999/xlink" x="0px" y="0px"
	 width="50px" height="50px" viewBox="0 0 50 50" enable-background="new 0 0 50 50" xml:space="preserve">
<path d="M33.473,38.45v-4.809h-2.271V23.311h2.271v-6.29h-0.828c0.096-0.089,0.189-0.179,0.271-0.27
	c1.369-1.516,2.053-3.318,1.873-4.945c-0.121-1.122-0.668-2.081-1.537-2.698c-1.105-0.786-2.582-0.927-4.072-0.531
	C28.594,6.657,26.951,5.262,25,5.262c-1.951,0-3.592,1.396-4.179,3.312c-1.492-0.396-2.968-0.254-4.073,0.532
	c-0.869,0.617-1.416,1.576-1.538,2.698c-0.179,1.627,0.505,3.429,1.874,4.945c0.076,0.084,0.169,0.176,0.268,0.269h-0.823v6.29
	h2.271V33.64h-2.271v4.809h-2.873v6.29h22.691v-6.29h-2.873V38.45z M32.094,10.739c0.408,0.291,0.646,0.723,0.709,1.286
	c0.113,1.044-0.398,2.31-1.369,3.385c-0.461,0.509-1.502,1.171-2.344,1.611h-2.754c0.133-0.331,0.234-0.676,0.275-1.05
	c0.1-0.904-0.076-1.86-0.479-2.793c0.18-0.279,0.379-0.552,0.611-0.812C28.365,10.575,30.814,9.831,32.094,10.739z M25,7.264
	c1.116,0,2.049,0.89,2.329,2.09c-0.736,0.43-1.443,0.985-2.067,1.673c-0.094,0.104-0.168,0.216-0.256,0.322
	c-0.089-0.108-0.172-0.218-0.268-0.323c-0.622-0.688-1.328-1.243-2.067-1.673C22.952,8.152,23.884,7.264,25,7.264z M18.568,15.412
	c-0.973-1.076-1.485-2.342-1.371-3.386c0.062-0.563,0.301-0.995,0.709-1.286c1.279-0.908,3.729-0.164,5.348,1.628
	c0.973,1.076,1.485,2.342,1.37,3.386c-0.062,0.553-0.294,0.978-0.69,1.268h-3.316C19.92,16.562,18.941,15.824,18.568,15.412z
	 M18.527,19.021h1.515c0.015,0.008,0.032,0.02,0.045,0.027l0.017-0.027h11.37v2.29H18.528L18.527,19.021L18.527,19.021z
	 M29.201,23.312v10.253h-8.403V23.312H29.201z M18.527,35.643h12.946v2.29H18.527V35.643L18.527,35.643z M34.346,42.74H15.655v-2.29
	h18.691V42.74z"/>
</svg>
